Modelo de clasificación: Suscripción
…
Ahora que sabemos que boosted_tree tuvo mejor desempeño. Entrenamos el 100% de los datos con este algoritmo.

my_boosted_tree <- workflow() |> 
  add_recipe(my_recipe) |> 
  add_model(boost_tree(mode = "classification")) |> 
  fit(data = suscripcion)

4.2 Predicciones

Para predecir, usamos la función `augment()`, que añade las predicciones al como nuevas columnas en el conjunto de datos

resultados <- my_boosted_tree |> 
  augment(validacion) 

# A tibble: 12,769 × 24
   .pred_class .pred_no .pred_si    Id  Edad Trabajo    `Estado Civil` Educacion
   <fct>          <dbl>    <dbl> <dbl> <dbl> <fct>      <fct>          <fct>    
 1 no             0.914   0.0859     0    30 trabajado… casado         primaria…
 2 no             0.952   0.0482     1    39 servicios  soltero        secundar…
 3 no             0.931   0.0692     2    25 servicios  casado         secundar…
 4 no             0.940   0.0596     3    38 servicios  casado         primaria…
 5 no             0.958   0.0419     4    47 administr… casado         grado_un…
 6 no             0.739   0.261      5    32 servicios  soltero        grado_un…
 7 no             0.652   0.348      6    32 administr… soltero        grado_un…
 8 no             0.958   0.0424     7    41 emprended… casado         grado_un…
 9 no             0.952   0.0479     8    31 servicios  divorciado     curso_pr…
10 no             0.972   0.0280     9    35 trabajado… casado         primaria…
# ℹ 12,759 more rows
# ℹ 16 more variables: `Credito por Defecto` <fct>, `Prestamo Vivienda` <fct>,
#   `Prestamo Personal` <fct>, Contacto <fct>, Mes <fct>, `Dia Semana` <fct>,
#   Duracion <dbl>, `Cantidad Contactos Realizados` <dbl>,
#   `Cantidad Dias desde Ultimo Contacto` <dbl>,
#   `Cantidad Contactos Previos Realizados` <dbl>,
#   `Resultado Campaña Anterior` <fct>, `Tasa Variacion Empleo` <dbl>, …
…
